%YAML 1.1
%TAG !u! tag:unity3d.com,2011:
--- !u!114 &11400000
MonoBehaviour:
  m_ObjectHideFlags: 0
  m_PrefabParentObject: {fileID: 0}
  m_PrefabInternal: {fileID: 0}
  m_GameObject: {fileID: 0}
  m_Enabled: 1
  m_EditorHideFlags: 0
  m_Script: {fileID: 11500000, guid: aa3633042b9c6cd418150eb76f490fa4, type: 3}
  m_Name: Recurrence Buff
  m_EditorClassIdentifier: 
  Name: Generic Buff
  Icon: {fileID: 0}
  Level: 1
  BasicAttackAnimationOverride: 
  DeathBehaviourOverride: 0
  Cooldowns:
  - 0
  Parent: {fileID: 11400000, guid: 68faa1e8627c7400587f000e9f27d6fe, type: 2}
  StaticStats:
    Power: 0
    Haste: 0
    Mastery: 0
    Penetration: 0
    Lifedrain: 0
    Tenacity: 0
    BaseAttackTime: 0
    AttackRange: 0
    MaxHealth: 0
    HealthRegen: 0
    AutoAttackDamage: 0
    AttackSpeed: 0
    Armor: 0
    Resistance: 0
    CooldownReduction: 0
    BonusCriticalDamage: 0
    MovementSpeed: 0
    HephisaltBounty: 0
    ExperienceBounty: 0
  PercentileStaticStats:
    Power: 0
    Haste: 0
    Mastery: 0
    Penetration: 0
    Lifedrain: 0
    Tenacity: 0
    BaseAttackTime: 0
    AttackRange: 0
    MaxHealth: 0
    HealthRegen: 0
    AutoAttackDamage: 0
    AttackSpeed: 0
    Armor: 0
    Resistance: 0
    CooldownReduction: 0
    BonusCriticalDamage: 0
    MovementSpeed: 0
    HephisaltBounty: 0
    ExperienceBounty: 0
  MaximumStacks: 1
  NoMaxStacks: 0
  HolderIsStructure: 0
  IsAura: 0
  AuraRadius: 0
  duration: 0
  AffectedByTenacity: 0
  DoNotRefreshOnStack: 0
  DropOffAltogether: 0
