%YAML 1.1
%TAG !u! tag:unity3d.com,2011:
--- !u!114 &11400000
MonoBehaviour:
  m_ObjectHideFlags: 0
  m_PrefabParentObject: {fileID: 0}
  m_PrefabInternal: {fileID: 0}
  m_GameObject: {fileID: 0}
  m_Enabled: 1
  m_EditorHideFlags: 0
  m_Script: {fileID: 11500000, guid: 95024929ca19440bbae143b883f44658, type: 3}
  m_Name: Lorem Ipsum
  m_EditorClassIdentifier: 
  Name: lorem_ipsum
  StatsByLevel: []
  Level: 1
  NumberOfStacks: 1
  BasicAttackAnimationOverride: 
  DeathBehaviourOverride: 0
  CurrentCooldown: 0
  Cooldowns:
  - 14
  - 13
  - 12
  - 11
  - 10
  loremIpsumCooldown:
  - 14
  - 13
  - 12
  - 11
  - 10
  loremIpsumRange: 850
  loremIpsumInitialRadius: 125
  loremIpsumTotalRadius: 250
  loremIpsumMissileSpeed: 1000
  loremIpsumProjectile: lorem_ipsum
  loremIpsumBaseDamage:
  - 100
  - 100
  - 100
  - 100
  - 100
  loremIpsumPowerScaling: 0.5
  loremIpsumSilenceDuration: 1.5
  loremIpsumVisionDuration: 3
  loremIpsumVisionGrowthDuration: 2
