Life,1,,300,100,,,,,,,,,,"Stackable: Taking damage from a large monster or forger causes you to regenerate 15 hp over 5 seconds. Has a cooldown of 20 seconds."
Toughness,1,,300,,,13,,,,,,,,"Stackable: Block 3 damage from basic attacks. This amount is doubled against forgers."
Resistance,1,,300,,,,15,,,,,,,"Stackable: When you take magic damage, reduce it by 15. This has a cooldown of 5 seconds."
Power,1,,300,,,,,10,,,,,,
Time,1,,300,,,,,,,,10,,,
Hunger,1,,300,,,,,,,,,,5,"Stackable: Dealing damage heals you for 5 health. This amount is doubled against forgers. This has a cooldown of 1.5 seconds."
Vitality,2,Life,1200,300,15,,,,,,,,,"Stackable: Taking damage from a large monster or forger causes you to regenerate 25 hp over 5 seconds. This has a cooldown of 20 seconds."
Vigor,2,Life,1500,250,,,,,,,15,,,"Stackable: You gain 15 movement speed for 1 second whenever a CC expires from you."
Sympathy,2,Life,900,225,,,,,,,,,,"Stackable: Every 15 seconds, you heal the lowest % health nearby ally for 25 health"
Growth,2,Life,1500,265,,30,,,,,,,,"Stackable: Whenever you level up, you regain 250 health over the next 10 seconds."
Integrity,2,Toughness,1200,,,50,,,,,,,,"UNIQUE: You take 10% less damage from basic attacks."
Substance,2,Toughness,1500,,,35,,20,,,,,,"Stackable: Your abilities deal 10% of your bonus armor as extra damage. This is 33% as effective on damage over time abilities, and each additional instance of this after the first is 50% as effective."
Restraint,2,Toughness,1200,,,30,,,,,15,,,"Stackable: Dealing damage to an enemy reduces their power by 10 for 2 seconds."
Protection,2,Toughness/Resistance,1500,,,35,25,,,,,,,"Stackable: If you have more bonus armor than bonus magic resistance, gain 10% of your bonus armor as magic resistance. If you have more bonus magic resistance than bonus armor, gain 10% of your bonus magic resistance as armor."
Perseverance,2,Resistance,1200,175,,,40,,,,,,,"Stackable: Whenever you take magic damage that would put you at lower than 30% of your maximum health, gain a shield that lasts for 4 seconds and absorbs 200 magic damage. If you take magic damage while the shield is active, the duration of the shield is increased by 1 second, to a maximum of 8 seconds. This has a 45 second cooldown. Each additional instance of this passive is 50% less effective."
Confidence,2,Resistance,1500,,,,35,20,,,,,,"Stackable: Whenever you deal damage to an enemy unit, reduce their magic resistance by 3 for 5 seconds. This stacks up to 4 times."
Authority,2,Power,1500,,,,,30,15,,,,,
Intensity,2,Power,1500,,,,,30,,10,,,,
Aggression,2,Power,1200,,,,,30,,,,,,"Stackable: Dealing damage to an enemy causes them to take an additional 15 (+40% power) damage. This effect has a 10 second cooldown."
Potential,2,Power,900,140,,,,15,,,,,,"UNIQUE: When you kill a minion, monster, or miner you gain 4 bonus health and .5 bonus power permanently. This stacks up to 40 times."
Decay,2,Time,1500,,,,,15,,,25,,,"Stackable: Your basic attacks deal an additional 20 bonus physical damage."
Recurrence,2,Time,1500,,,,,10,,,30,,,"Stackable: Dealing damage to an enemy with an ability reduces the cooldowns of your basic abilities by .25 seconds. This amount is doubled against forgers. This effect has a 4 second cooldown."
Zeal,2,Time,1200,,,,,,,,30,,,"Stackable: Dealing damage to an enemy forger marks them for 4 seconds. The next allied forger to damage them within that timeframe gains 20 bonus movement speed for 2 seconds and the mark is consumed. This effect can happen once every 16 seconds."
Fate,2,Time,1500,,,,,,,,35,,,"UNIQUE: Dealing damage to an enemy slows them by 15% for 1 second. This can only affect each enemy once every 4 seconds."
Consumption,2,Hunger,1500,,,,,25,,,,,10,
Desire,2,Hunger,1200,,,25,,,,,,,5,"Stackable: Your basic attacks deal 20 bonus physical damage to their target over 3 seconds. You heal for 10% of this bonus damage. All healing provided by this passive is capped at a maximum of 4 health per second. The healing and the cap are halved for ranged forgers."
Defiance,3,Vitality,3300,550,25,,,,,,25,,,"UNIQUE: Upon reaching 30% of your maximum health, rapidly heal for 30% of your maximum health over the next 5 seconds. Cooldown of 90 seconds.

Stackable: Taking damage from a large monster or forger causes you to regenerate 25 hp over 5 seconds. This has a cooldown of 20 seconds."
Renewal,3,Vitality,2700,350,35,,,,,,20,,,"UNIQUE: Increases the effectiveness of all healing effects on you by 15%. While in combat with enemy forgers, this effect increases to 50% over the course of 4 seconds.

Stackable: Taking damage from a large monster or forger causes you to regenerate 25 hp over 5 seconds. This has a cooldown of 20 seconds."
Rampancy,3,Vitality,3000,615,15,,,,,,,,,"UNIQUE: You gain bonus power equal to 2.5% of your bonus health.

Stackable: Taking damage from a large monster or forger causes you to regenerate 25 hp over 5 seconds. This has a cooldown of 20 seconds."
Tenacity,3,Vigor,2700,475,,,,,,,25,,,"UNIQUE: Reduce the effectiveness of all CCs on you by 35%.

Stackable: You gain 15 movement speed for 1 second whenever a source of CC expires from you."
Endurance,3,Vigor,3000,250,,,,20,,,30,,,"UNIQUE: Every 30 seconds, gain a shield that prevents the first movement disabling effect used against you.

Stackable: You gain 15 movement speed for 1 second whenever a CC expires from you."
Sanctuary,3,Sympathy,2700,300,,25,,,,,,,,"UNIQUE: You and your nearby allies gain 20 armor and 20 magic resistance. Casting a spell causes all allied forgers in a moderate area to be healed for 30 (+ 0.1 power). Allies that are healed in this way also gain an additional 20 armor and 20 magic resistance for 1.5 seconds. This effect has a 10 second cooldown.

Stackable: Every 15 seconds, you heal the lowest % health nearby ally for 25 health."
Empathy,3,Sympathy,3000,400,,60,50,,,,,,,"UNIQUE: Redirect 15% of the damage that your nearest ally would take to yourself. This deactivates upon you reaching 25% of your health or less."
Charity,3,Sympathy,2700,325,,,,,,,25,,,"UNIQUE: Heals and shields you use on allies have their effectiveness increased by 1% for each 2% hp that ally is missing.

Stackable: Every 15 seconds, you heal the lowest % health nearby ally for 25 health."
Synergy,3,Sympathy,3000,350,,,,40,,,,,,"UNIQUE: Your basic attacks and single target abilities mark enemy forgers. Allies that deal damage to the marked forger deal an additional 85 (+ 0.3 power) magic damage over the next 3 seconds and gain a 50 (+ 0.2 power) shield. Only one enemy forger may be marked at a time and allies attacking the samge forger reset the damage timer. Allies can only gain the benefit of this effect once every 10 seconds."
Maturity,3,Growth,3700,300,,15,15,,,,,,,"UNIQUE: Permanently gain 30 health, 3 armor, and 2 magic resistance every 75 seconds. This caps at 300 health, 30 armor, and 20 magic resistance.

Stackable: Whenever you level up, you regain 250 health over the next 10 seconds."
Proliferation,3,Growth,3000,275,,45,,,,,30,,,"UNIQUE: Your basic attacks deal an additional 10 true damage to structures for each nearby allied minion. This effect caps at 90 bonus true damage.

Stackable: Whenever you level up, you regain 250 health over the next 10 seconds."
Law,3,Integrity,2400,,,85,,,,,,,,"UNIQUE: Reduce the damage taken by basic attacks by 20%. If you are damaged by a critical hit, the attacker is slowed by 70% which rapidly decays over 0.5 seconds and the reduction is increased to 30%. This increased effect can only happen once every 5 seconds."
Gravity,3,Substance,3000,,,60,,40,,,,,,"UNIQUE: Taking damage builds a stack of "Lockdown" for 4 seconds. At 5 stacks, Lockdown activates, reducing all nearby enemies' movement speed by 35% for 1 second.

Stackable: Your abilities deal 10% of your bonus armor as extra damage. This is 33% as effective on damage over time abilities, and each additional instance of this after the first is 50% as effective."
Pride,3,Substance,3000,,,50,,40,,,,,,"UNIQUE: Dealing damage to an enemy forger with an ability reduces physical damage taken by 10% for 4 seconds. This effect can stack up to twice. This effect has a 30 second cooldown, or it refreshes after you are out of combat for 10 seconds.

Stackable: Your abilities deal 10% of your bonus armor as extra damage. This is 33% as effective on damage over time abilities, and each additional instance of this after the first is 50% as effective."
Subjugation,3,Restraint,3000,,,65,,,,,30,,,"UNIQUE: Dealing damage to an enemy reduces their power by 15 and their attack speed by 15% for 2 seconds. This effect can stack up to 2 times."
Suppression,3,Restraint,3000,,,50,30,,,,30,,,"UNIQUE: Dealing damage to an enemy reduces the damage their abilities deal by 20% for 2 seconds."
Hope,3,Protection,3000,,,55,45,,,,,,,"UNIQUE: Whenever you take damage that would put you below 30% of your maximum health, you gain 15% damage reduction and a shield that blocks 100 (+20 per level) damage. This effect lasts for 3 seconds. This effect has a 10 second cooldown."
Adaptation,3,Protection,3000,,,65,65,,,,,,,"UNIQUE: You gain 20% of your bonus armor as magic resistance if you have more bonus armor than bonus magic resistance. You gain 20% of your bonus magic resistance as armor if you have more bonus magic resistance than bonus armor. These effects do not stack with each other."
Resolve,3,Perseverance,3300,350,,,55,30,,,,,,"UNIQUE: You gain additional power based on your missing health, up to a maximum of 35 at 30% of your maximum health.

Stackable: Whenever you take magic damage that would put you at lower than 30% of your maximum health, gain a shield that lasts for 4 seconds and absorbs 200 magic damage. If you take magic damage while the shield is active, the duration of the shield is increased by 1 second, to a maximum of 8 seconds. This has a 45 second cooldown. Each additional instance of this passive is 50% less effective."
Retribution,3,Perseverance,3000,400,,,40,,,,25,,,"UNIQUE: Whenever you drop below 30% of your maximum health, all of your basic ability cooldowns are fully refreshed. This effect has a 15 second cooldown.

Stackable: Whenever you take magic damage that would put you at lower than 30% of your maximum health, gain a shield that lasts for 4 seconds and absorbs 200 magic damage. If you take magic damage while the shield is active, the duration of the shield is increased by 1 second, to a maximum of 8 seconds. This has a 45 second cooldown. Each additional instance of this passive is 50% less effective."
Focus,3,Perseverance,2700,350,,,70,,,,,,,"UNIQUE: You gain a shield that blocks (100-350 based on level) magic damage if you do not take magic damage for 10 seconds."
Arrogance,3,Confidence,3000,,,,35,40,,,,,,"UNIQUE: Dealing damage to an enemy forger reduces their magic resistance by 5. This can stack 3 times to a maximum of 15 magic resistance reduction per enemy forger. You gain magic resistance equal to the total amount of shredded magic resistance, up to a maximum of 75 magic resistance."
Courage,3,Confidence,3000,,,,35,25,,,30,,,"UNIQUE: Your basic attacks deal 50 bonus magic damage.

Stackable: Whenever you deal damage to an enemy unit, reduce their magic resistance by 3 for 5 seconds. This stacks up to 4 times."
Doubt,3,Confidence,2700,300,,,45,30,,,,,,"UNIQUE: Damaging an enemy forger creates a small AoE around them for 3 seconds. Enemies that remain in this area have their magic resistance reduced by 15. You can store up to 3 charges of this effect, and you gain one charge every 10 seconds. Multiple AoEs do not stack."
Rebellion,3,Authority,3000,,,,,60,30,,,,,"UNIQUE: You gain 30 defense penetration [Note: This is already calculated into the item's stats]"
Dominance,3,Authority,3000,,,,,50,,,,,,"UNIQUE: Damage you deal ignores 50% of your opponent's bonus resistances."
Justice,3,Authority,3000,300,,,,50,10,,,,,"UNIQUE: Dealing damage reduces your opponent's armor or magic resistance by 5% for 4 seconds, depending on if the damage dealt was physical or magical. This effect stacks up to 5 times for a maximum reduction of 25%."
Precision,3,Intensity,3600,,,,,50,,25,,,,"UNIQUE: Whenever you deal damage with a critical hit, you deal (+0.8 power) bonus physical damage."
Pain,3,Intensity,3000,,,,,45,,20,,,,"UNIQUE: Whenever you deal a critical hit to an enemy, you deal an additional (+1.5 power) physical damage over a 2 second duration."
Force,3,Intensity,3300,,,,,60,,20,,,,"UNIQUE: Whenver you deal damage with an ability, you deal (+0.3 power) bonus magic damage. This bonus damage is 50% as effective when applied with an AoE ability. This bonus damage can only be applied once per spell."
Command,3,Intensity,2700,175,,,,30,,10,,,,"UNIQUE: Whenever you cast a spell, you and your nearby allies gain 10 power and 5 mastery for 6 seconds. This can stack up to 3 times."
Destruction,3,Intensity,,,,,40,,20,,,,"UNIQUE: Whenever you deal damage to an enemy forger with a single target spell, you deal additional magic damage equal to 30 (+0.4 power) plus (+0.1 mastery)% of the forger's maximum health. This has a 6 second cooldown per enemy forger."
Fatigue,3,Aggression,3000,275,,,,50,,,,,,"UNIQUE: Whenever you deal ability damage to an enemy, a debuff is applied to them that causes them to take 10% increased ability damage for 4 seconds."
Supremacy,3,Aggression,3300,,,,,70,,,,,,"UNIQUE: Casting an ability or auto attacking grants you 30% increased power for 4 seconds. This effect has a 6 second cooldown."
Wrath,3,Aggression,3000,,,,,40,,,25,,,"UNIQUE: Whenever you cast an ability, your next basic attack within 6 seconds deals 50 (+1.2 power) bonus physical damage. This effect has a 2 second cooldown."
Desolation,3,Aggression,2400,,,,,55,,,,,,"UNIQUE: Whenever you deal damage to an enemy forger, you deal an extra 30 (+0.4 power) magic damage to them and their healing is reduced by 35% for 3.5 seconds. This effect has a 6 second cooldown per enemy forger."
Divinity,3,Potential,3000,200,,,,25,,,,,,"UNIQUE: Whenever you kill a unit, you gain 4 health and 0.5 power permanently. After you gain 40 stacks of this, the bonus stats gained decrease by 1% for each additional stack. Stacks gained from Potential count towards this item's passive."
Conquest,3,Potential,3000,225,,,,25,,,,,,"UNIQUE: Whenever you kill a minion, monster, or well worker, you gain a stack of [STACK NAME], capping at 8 stacks. You also gain 1 stack every 10 seconds. Whenever you deal damage to an enemy forger with a basic attack or single target spell, you deal an additional 30 (+0.15 power per stack) magic damage, and all stacks of [STACK NAME] are consumed.

UNIQUE: When you kill a minion, monster, or miner you gain 4 bonus Health and .5 bonus Power permanently. This stacks up to 40 times. Stacks from Potential are carried over into this item."
Ruin,3,Decay,3000,,,,,20,,,35,,,"UNIQUE: Your auto attacks deal an additional 25 (+12% of target's bonus health) as physical damage."
Turmoil,3,Decay,2700,,,,,25,,,30,,,"UNIQUE: Your basic attacks hit up to 3 additional nearby targets. These extra attacks deal 40% of the initial attack's damage and apply all on hit effects.

Stackable: Your basic attacks deal an additional 20 bonus physical damage."
Momentum,3,Decay,3000,,,,,15,,,35,5,,"UNIQUE: Your basic attacks deal an additional 5% of their damage as true damage, calculated pre-mitigation. In addition, every 8 seconds, your next basic attack gains 20% increased attack range. If this basic attack targets an enemy forger, the cooldown on this effect is fully refreshed and your next basic attack deals 10% of its damage as true damage instead, calculated pre-mitigation."
Dissonance,3,Decay,3300,,,,,25,,25,25,,,"UNIQUE: You deal 15 (+0.2 power) bonus magical damage on your basic attacks. Whenever you deal damage to an enemy with a critical hit, you gain a stack of Static Charge, up to a maximum of 4 stacks. Each subsequent proc of this passive causes 25% of the damage your bassic attack deals to arc as magical damage to a number of enemies equal to the stacks of Static Charge you have built, prioritizing forgers."
Fury,3,Recurrence,3000,,,,,40,,,30,,,"UNIQUE: Dealing damage to an enemy with an ability reduces your other basic ability cooldowns by 0.25 seconds. This effect is doubled against enemy forgers. This effect has a 3 second cooldown. It also burns the enemy for 5% of their maximum health over a 3 second duration."
Finesse,3,Recurrence,3000,,,,,10,,30,30,,,"UNIQUE: Dealing damage to an enemy with an ability reduces your other basic ability cooldowns by 0.25 (+0.005 mastery) seconds. This effect is doubled against enemy forgers. This has a 3 second cooldown."
Resonance,3,Recurrence,3000,275,,,,25,,,35,,,"UNIQUE: Whenever a nearby ally deals damage to an enemy, your basic ability cooldowns are reduced by 0.25 seconds. This effect cannot happen more than once every 1 second."
Continuity,3,Recurrence,2700,,,,,25,,,35,,,"UNIQUE: Your basic attacks reduce the cooldowns of your basic abilities by 0.25 seconds. This effect is doubled against enemy forgers. This has a 0.75 second cooldown."
Allure,3,Zeal,2700,300,,,,,,,35,10,,"UNIQUE: Nearby allies gain 10% movement speed when moving towards you. This effect is doubled for your allies while they are out of combat for 5 seconds.

Stackable: Dealing damage to an enemy forger marks them for  seconds. The next allied forger to damage them within that timeframe gains 20 bonus movement speed for 2 seconds and the mark is consumed. This effect can happen once every 16 seconds."
Influence,3,Zeal,3000,275,,,,,,,30,,,"UNIQUE: Your basic attacks against enemy forgers marks the last target you auto attacked. Nearby allies that attack the marked target for 3 consecutive basic attacks perform an additional basic attack at 50% damage on the third basic attack and gain 30 bonus movement speed for 2 seconds."
Corruption,3,Zeal,2400,275,,,,,,,35,,,"UNIQUE: Dealing damage to an enemy forger marks them for 4 seconds. When they are marked, their healing is reduced by 35% for 3 seconds. The next allied forger to damage them within that timeframe gains20 bonus movement speed for 2 seconds and the mark is consumed. Enemies cannot be affected by this more than once every 5 seconds."
Entropy,3,Fate,2700,,,,,35,,,35,,,"UNIQUE: Dealing damage to an enemy consumes a charge of [NAME], which increases your movement speed by 60 for 0.75 seconds. It also slows the enemy's movement speed by 60 for 0.75 seconds. Both the speed boost and the slow decay rapidly. You build 1 charge every 5 seconds, up to a maximum of 4 charges. Dealing damage reduces the charge cooldown by 0.5 seconds."
Prophecy,3,Fate,3000,300,,,,,,45,,,"UNIQUE: Dealing damage to an enemy slows them by a specific amount, based on the way the damage was dealt. Over the next 0.75 second, this slow increases to 70% and remains at 70% for 0.25 seconds. This has a 5 second cooldown for each enemy.

Ranged attacks: 25%
Melee attacks: 40%
Single target: 35%
AoE: 15%"
Insight,3,Fate,2700,,,,,,,,40,,,"UNIQUE: Dealing damage to an enemy forger with a basic attack applies a stack of Awareness. For the next 4 seconds, your basic attacks and allied basic attacks that deal damage to the target will add an additional stack of Awareness (2 for melee basic attacks). When a target reaches 5 stacks of Awareness, they are rooted for 1 second. After a target has been rooted, they cannot be rooted for 10 seconds."
Voracity,3,Consumption,3000,,,,,50,,,25,,10,"UNIQUE: Dealing damage with basic attacks grants 3% lifedrain. This stacks up to 5 times up to a maximum of 15% additional lifedrain. Basic attacks on enemy forgers grant 2 stacks."
Gluttony,3,Consumption,3000,,,,,50,,,,,15,"UNIQUE: You heal for 15% of the damage that your abilities would deal pre-mitigation. This effect is reduced to 33% effectiveness on each target for AoE abilities."
Avarice,3,Desire,3000,375,,40,,,,,,,10,"UNIQUE: You deal 1.5% of your maximum health as physical damage to all nearby enemies each second. You heal for 10% of this damage, and this healing is doubled against forgers. You cannot heal for more than 0.75% of your maximum health each second."
Envy,3,Desire,3300,,,40,,,,,25,,10,"UNIQUE: Your basic attacks splash, dealing 40 (+0.25 power) bonus physical damage to your main target and all nearby enemies, healing you for 12.5% of that amount per enemy hit, up to 50% of the outgoing damage."
Lust,3,Desire,3000,,,40,,35,,,,,15,"UNIQUE: Taking damage causes 10% of the damage you would take to be dealt over time for a 5 second duration.

Stackable: Your basic attacks deal 20 bonus physical damage to their target over 3 seconds. You heal for 10% of this bonus damage. All healing provided by this passive is capped at a maximum of 4 health per second. The healing and the cap are halved for ranged forgers."