%YAML 1.1
%TAG !u! tag:unity3d.com,2011:
--- !u!114 &11400000
MonoBehaviour:
  m_ObjectHideFlags: 0
  m_PrefabParentObject: {fileID: 0}
  m_PrefabInternal: {fileID: 0}
  m_GameObject: {fileID: 0}
  m_Enabled: 1
  m_EditorHideFlags: 0
  m_Script: {fileID: 11500000, guid: 37306384918fe4b1c9c5bf3349b34b61, type: 3}
  m_Name: Restraint
  m_EditorClassIdentifier: 
  Name: Restraint
  Tier: 2
  Cost: 1200
  icon: {fileID: 21300000, guid: 44ffb35a90fd6804fa3cd92eba07308f, type: 3}
  Parent:
  - 
  BuildsFrom:
  - {fileID: 11400000, guid: af6ca5479573e4a9887a8e80176cae11, type: 2}
  Child:
  - 
  - 
  BuildsInto: []
  PassiveName: Restraint
  PassiveDesc: Dealing damage to an enemy reduces their power by 10 for 2 seconds
  isFirstInstance: 1
  additionalStacks: 0
  ListStats: 0200000007000000
  StaticItemStats:
    Power: 0
    Haste: 15
    Mastery: 0
    Penetration: 0
    Lifedrain: 0
    Tenacity: 0
    BaseAttackTime: 0
    AttackRange: 0
    MaxHealth: 0
    HealthRegen: 0
    AutoAttackDamage: 0
    AttackSpeed: 0
    Armor: 30
    Resistance: 0
    CooldownReduction: 0
    BonusCriticalDamage: 0
    MovementSpeed: 0
    HephisaltBounty: 0
    ExperienceBounty: 0
  PercentItemStats:
    Power: 0
    Haste: 0
    Mastery: 0
    Penetration: 0
    Lifedrain: 0
    Tenacity: 0
    BaseAttackTime: 0
    AttackRange: 0
    MaxHealth: 0
    HealthRegen: 0
    AutoAttackDamage: 0
    AttackSpeed: 0
    Armor: 0
    Resistance: 0
    CooldownReduction: 0
    BonusCriticalDamage: 0
    MovementSpeed: 0
    HephisaltBounty: 0
    ExperienceBounty: 0
  UniquePassive: {fileID: 0}
  StackablePassive: {fileID: 11400000, guid: 0a02b5e5fa711f9439eeedb75f3db0df, type: 2}
